C:\Users\ASUS\Documents\code-with-quarkus\src\main\java\org\acme\commandmode\TestService.java
C:\Users\ASUS\Documents\code-with-quarkus\src\main\java\org\acme\commandmode\HelloCommando.java
C:\Users\ASUS\Documents\code-with-quarkus\src\main\java\org\acme\commandmode\TestController.java
C:\Users\ASUS\Documents\code-with-quarkus\src\main\java\org\acme\commandmode\Testdata.java
C:\Users\ASUS\Documents\code-with-quarkus\src\main\java\org\acme\commandmode\TestRepository.java
